…
``` r
Mr.trash_df = read_excel("data/Trash Wheel Collection Data.xlsx",
      sheet = "Mr. Trash Wheel",
      range = "A2:N549") %>% 
  janitor::clean_names() %>% 
  drop_na(dumpster) %>% 
  mutate(sports_balls = as.integer(round(sports_balls, digits = 0)))

Mr.trash_df
```

    ## # A tibble: 547 × 14
    ##    dumpster month year  date                weight_tons volume…¹ plast…² polys…³
    ##       <dbl> <chr> <chr> <dttm>                    <dbl>    <dbl>   <dbl>   <dbl>
    ##  1        1 May   2014  2014-05-16 00:00:00        4.31       18    1450    1820
    ##  2        2 May   2014  2014-05-16 00:00:00        2.74       13    1120    1030
    ##  3        3 May   2014  2014-05-16 00:00:00        3.45       15    2450    3100
    ##  4        4 May   2014  2014-05-17 00:00:00        3.1        15    2380    2730
    ##  5        5 May   2014  2014-05-17 00:00:00        4.06       18     980     870
    ##  6        6 May   2014  2014-05-20 00:00:00        2.71       13    1430    2140
    ##  7        7 May   2014  2014-05-21 00:00:00        1.91        8     910    1090
    ##  8        8 May   2014  2014-05-28 00:00:00        3.7        16    3580    4310
    ##  9        9 June  2014  2014-06-05 00:00:00        2.52       14    2400    2790
    ## 10       10 June  2014  2014-06-11 00:00:00        3.76       18    1340    1730
    ## # … with 537 more rows, 6 more variables: cigarette_butts <dbl>,
    ## #   glass_bottles <dbl>, grocery_bags <dbl>, chip_bags <dbl>,
    ## #   sports_balls <int>, homes_powered <dbl>, and abbreviated variable names
    ## #   ¹​volume_cubic_yards, ²​plastic_bottles, ³​polystyrene

similar process to `Professor Trash Wheel`

``` r
ProTrash_df = read_excel("data/Trash Wheel Collection Data.xlsx",
      sheet = "Professor Trash Wheel", 
      range = "A2:M96") %>% 
  janitor::clean_names() %>% 
  drop_na(dumpster)

ProTrash_df
```

    ## # A tibble: 94 × 13
    ##    dumpster month     year date                weight_…¹ volum…² plast…³ polys…⁴
    ##       <dbl> <chr>    <dbl> <dttm>                  <dbl>   <dbl>   <dbl>   <dbl>
    ##  1        1 January   2017 2017-01-02 00:00:00      1.79      15    1950    6080
    ##  2        2 January   2017 2017-01-30 00:00:00      1.58      15    9540   11230
    ##  3        3 February  2017 2017-02-26 00:00:00      2.32      18    8350    9210
    ##  4        4 February  2017 2017-02-26 00:00:00      3.72      15    8590    1030
    ##  5        5 February  2017 2017-02-28 00:00:00      1.45      15    7830    9950
    ##  6        6 March     2017 2017-03-30 00:00:00      1.71      15    8210   10340
    ##  7        7 April     2017 2017-04-01 00:00:00      1.82      15    9830   11020
    ##  8        8 April     2017 2017-04-20 00:00:00      2.37      15    9240    8760
    ##  9        9 May       2017 2017-05-10 00:00:00      2.64      15    9540    8810
    ## 10       10 May       2017 2017-05-26 00:00:00      2.78      15    8230    7800
    ## # … with 84 more rows, 5 more variables: cigarette_butts <dbl>,
    ## #   glass_bottles <dbl>, grocery_bags <dbl>, chip_bags <dbl>,
    ## #   homes_powered <dbl>, and abbreviated variable names ¹​weight_tons,
    ## #   ²​volume_cubic_yards, ³​plastic_bottles, ⁴​polystyrene
…
    ## Rows: 822 Columns: 9
    ## ── Column specification ────────────────────────────────────────────────────────
    ## Delimiter: ","
    ## dbl  (8): prez_gop, gov_gop, sen_gop, rep_gop, prez_dem, gov_dem, sen_dem, r...
    ## date (1): mon
    ## 
    ## ℹ Use `spec()` to retrieve the full column specification for this data.
    ## ℹ Specify the column types or set `show_col_types = FALSE` to quiet this message.

``` r
pols
```

    ## # A tibble: 822 × 9
    ##     year month gov_gop sen_gop rep_gop gov_dem sen_dem rep_dem president
    ##    <int> <chr>   <dbl>   <dbl>   <dbl>   <dbl>   <dbl>   <dbl> <chr>    
    ##  1  1947 Jan        23      51     253      23      45     198 dem      
    ##  2  1947 Feb        23      51     253      23      45     198 dem      
    ##  3  1947 Mar        23      51     253      23      45     198 dem      
    ##  4  1947 Apr        23      51     253      23      45     198 dem      
    ##  5  1947 May        23      51     253      23      45     198 dem      
    ##  6  1947 Jun        23      51     253      23      45     198 dem      
    ##  7  1947 Jul        23      51     253      23      45     198 dem      
    ##  8  1947 Aug        23      51     253      23      45     198 dem      
    ##  9  1947 Sep        23      51     253      23      45     198 dem      
    ## 10  1947 Oct        23      51     253      23      45     198 dem      
    ## # … with 812 more rows
…
    ## Rows: 787 Columns: 2
    ## ── Column specification ────────────────────────────────────────────────────────
    ## Delimiter: ","
    ## chr (1): date
    ## dbl (1): close
    ## 
    ## ℹ Use `spec()` to retrieve the full column specification for this data.
    ## ℹ Specify the column types or set `show_col_types = FALSE` to quiet this message.

``` r
snp
```

    ## # A tibble: 787 × 3
    ##     year month close
    ##    <dbl> <chr> <dbl>
    ##  1  1950 Apr    18.0
    ##  2  1950 Aug    18.4
    ##  3  1950 Dec    20.4
    ##  4  1950 Feb    17.2
    ##  5  1950 Jan    17.0
    ##  6  1950 Jul    17.8
    ##  7  1950 Jun    17.7
    ##  8  1950 Mar    17.3
    ##  9  1950 May    18.8
    ## 10  1950 Nov    19.5
    ## # … with 777 more rows
…
